{
    "cards" : [
        {
            "cardType" : "CardType1",
            "headerData":{
                "titleText":"nikunj, how much do you need?",
                "descriptionText":"move the dial and set any amount you need upto ₹ 487,891"
            },
            "cardData":{
                "ctaTitle":"Proceed to EMI selection",
                "isExpanded":true
            }
        },
        {
            "cardType" : "CardType2",
            "headerData":{
                "titleText":"how do you wish to repay?",
                "descriptionText":"choose one of our recommendation plans or make your own"
            },
            "cardData":{
                "ctaTitle":"Select your bank account",
                "isExpanded":false
            }
        },
        {
            "cardType" : "CardType3",
            "headerData":{
                "titleText":"where should we send the money?",
                "descriptionText":"amount will be credited to this bank account, EMI will also be debited from this bank account"
            },
            "cardData":{
                "ctaTitle":"Tap for 1-click KYC",
                "isExpanded":false
            }
        }
    ],
    "user":{
        "name":"nikunj",
        "mobile":"919935"
    }
}
